{
    "new_entries": {
        "has_next": false,
        "page": 1,
        "results": []
    },
    "last_updated_data": "2022-03-20T20:18:11Z",
    "league": {
        "id": 12,
        "name": "Man City",
        "created": "2021-06-22T10:37:33.092836Z",
        "closed": false,
        "max_entries": null,
        "league_type": "s",
        "scoring": "c",
        "admin_entry": null,
        "start_event": 1,
        "code_privacy": "p",
        "has_cup": true,
        "cup_league": 2405154,
        "rank": null
    },
    "standings": {
        "has_next": true,
        "page": 1,
        "results": [
            {
                "id": 26907821,
                "event_total": 78,
                "player_name": "Filemon Dettori",
                "rank": 1,
                "last_rank": 3,
                "rank_sort": 1,
                "total": 2197,
                "entry": 4077661,
                "entry_name": "de Bruyne suiker"
            },
            {
                "id": 39764933,
                "event_total": 63,
                "player_name": "Sebastian Ogrodowicz",
                "rank": 2,
                "last_rank": 4,
                "rank_sort": 2,
                "total": 2185,
                "entry": 5718159,
                "entry_name": "The Citizens"
            },
            {
                "id": 181042,
                "event_total": 77,
                "player_name": "Pranto Protim Paul",
                "rank": 3,
                "last_rank": 13,
                "rank_sort": 3,
                "total": 2185,
                "entry": 35434,
                "entry_name": "Captain Blank XI"
            },
            {
                "id": 212402,
                "event_total": 55,
                "player_name": "ha fiz",
                "rank": 4,
                "last_rank": 1,
                "rank_sort": 4,
                "total": 2184,
                "entry": 41410,
                "entry_name": "BABA YAGA"
            },
            {
                "id": 38865747,
                "event_total": 67,
                "player_name": "Luka Savkov",
                "rank": 5,
                "last_rank": 8,
                "rank_sort": 5,
                "total": 2175,
                "entry": 5607656,
                "entry_name": "Jorgandžije"
            },
            {
                "id": 3036890,
                "event_total": 54,
                "player_name": "Tiger Rattigan",
                "rank": 6,
                "last_rank": 2,
                "rank_sort": 6,
                "total": 2174,
                "entry": 572793,
                "entry_name": "Template FC"
            },
            {
                "id": 461708,
                "event_total": 60,
                "player_name": "Milton Silva",
                "rank": 7,
                "last_rank": 10,
                "rank_sort": 7,
                "total": 2168,
                "entry": 88753,
                "entry_name": "F.C. Coimbra"
            },
            {
                "id": 11913,
                "event_total": 72,
                "player_name": "Adam Seel",
                "rank": 8,
                "last_rank": 18,
                "rank_sort": 8,
                "total": 2167,
                "entry": 2738,
                "entry_name": "Bread n Butter"
            },
            {
                "id": 3132108,
                "event_total": 87,
                "player_name": "Ben Fowler",
                "rank": 9,
                "last_rank": 30,
                "rank_sort": 9,
                "total": 2167,
                "entry": 591098,
                "entry_name": "Zinchenko SZN"
            },
            {
                "id": 1777625,
                "event_total": 49,
                "player_name": "Abdelhamid Ghenim",
                "rank": 10,
                "last_rank": 5,
                "rank_sort": 10,
                "total": 2166,
                "entry": 334773,
                "entry_name": "FPL Benny"
            },
            {
                "id": 1228152,
                "event_total": 60,
                "player_name": "Adib Done",
                "rank": 11,
                "last_rank": 14,
                "rank_sort": 11,
                "total": 2162,
                "entry": 231396,
                "entry_name": "adib done"
            },
            {
                "id": 12872,
                "event_total": 43,
                "player_name": "Mudit Malik",
                "rank": 12,
                "last_rank": 7,
                "rank_sort": 12,
                "total": 2158,
                "entry": 2930,
                "entry_name": "Entourage"
            },
            {
                "id": 2020166,
                "event_total": 75,
                "player_name": "Subham Krishna Shrestha",
                "rank": 13,
                "last_rank": 23,
                "rank_sort": 13,
                "total": 2157,
                "entry": 377795,
                "entry_name": "FC THUNDERBOLTS"
            },
            {
                "id": 30510945,
                "event_total": 52,
                "player_name": "Ongun Sepkin",
                "rank": 14,
                "last_rank": 12,
                "rank_sort": 14,
                "total": 2157,
                "entry": 4551258,
                "entry_name": "billythebutcher"
            },
            {
                "id": 311628,
                "event_total": 40,
                "player_name": "Oisin Mallon",
                "rank": 15,
                "last_rank": 6,
                "rank_sort": 15,
                "total": 2156,
                "entry": 60762,
                "entry_name": "Pain in Dias"
            },
            {
                "id": 349049,
                "event_total": 44,
                "player_name": "Kristian Tveter",
                "rank": 16,
                "last_rank": 11,
                "rank_sort": 16,
                "total": 2155,
                "entry": 67762,
                "entry_name": "baba zaba"
            },
            {
                "id": 10214761,
                "event_total": 41,
                "player_name": "Shireesh Khandkar",
                "rank": 17,
                "last_rank": 9,
                "rank_sort": 17,
                "total": 2153,
                "entry": 1830934,
                "entry_name": "Boring Team"
            },
            {
                "id": 1603266,
                "event_total": 52,
                "player_name": "Dan-Fung Chan",
                "rank": 18,
                "last_rank": 16,
                "rank_sort": 18,
                "total": 2149,
                "entry": 302735,
                "entry_name": "Dain Bramaged"
            },
            {
                "id": 1503166,
                "event_total": 51,
                "player_name": "Aaron Bartlett",
                "rank": 19,
                "last_rank": 17,
                "rank_sort": 19,
                "total": 2146,
                "entry": 284142,
                "entry_name": "Middle-aged Virgil"
            },
            {
                "id": 20567616,
                "event_total": 72,
                "player_name": "Mayank Palod",
                "rank": 20,
                "last_rank": 42,
                "rank_sort": 20,
                "total": 2145,
                "entry": 3216727,
                "entry_name": "Time to push"
            },
            {
                "id": 15026066,
                "event_total": 55,
                "player_name": "Ben Hardman",
                "rank": 21,
                "last_rank": 19,
                "rank_sort": 21,
                "total": 2143,
                "entry": 2581790,
                "entry_name": "Rodri You Plonker"
            },
            {
                "id": 1239372,
                "event_total": 41,
                "player_name": "Apoorv Verma",
                "rank": 22,
                "last_rank": 15,
                "rank_sort": 22,
                "total": 2142,
                "entry": 233553,
                "entry_name": "Jack in the Box"
            },
            {
                "id": 3720529,
                "event_total": 68,
                "player_name": "Andreas Wangen Grønvold",
                "rank": 23,
                "last_rank": 34,
                "rank_sort": 23,
                "total": 2141,
                "entry": 699767,
                "entry_name": "BobleBobleBest"
            },
            {
                "id": 1632614,
                "event_total": 54,
                "player_name": "Tikaharu Sharma",
                "rank": 24,
                "last_rank": 20,
                "rank_sort": 24,
                "total": 2139,
                "entry": 308239,
                "entry_name": "FrontRunners"
            },
            {
                "id": 3062144,
                "event_total": 84,
                "player_name": "Kasper Finnila",
                "rank": 25,
                "last_rank": 92,
                "rank_sort": 25,
                "total": 2135,
                "entry": 577654,
                "entry_name": "TeamOlemassansa"
            },
            {
                "id": 104579,
                "event_total": 52,
                "player_name": "Reyan Abbasi",
                "rank": 26,
                "last_rank": 28,
                "rank_sort": 26,
                "total": 2132,
                "entry": 884,
                "entry_name": "Steele yo Hart"
            },
            {
                "id": 11182853,
                "event_total": 50,
                "player_name": "dylan fortuna",
                "rank": 27,
                "last_rank": 24,
                "rank_sort": 27,
                "total": 2132,
                "entry": 1984685,
                "entry_name": "Lo$ Bundak$"
            },
            {
                "id": 1730220,
                "event_total": 49,
                "player_name": "Henry Francis",
                "rank": 28,
                "last_rank": 26,
                "rank_sort": 28,
                "total": 2130,
                "entry": 325752,
                "entry_name": "Rosa Parks The Bus"
            },
            {
                "id": 16954996,
                "event_total": 48,
                "player_name": "Brogan O’Grady",
                "rank": 29,
                "last_rank": 25,
                "rank_sort": 29,
                "total": 2130,
                "entry": 2871876,
                "entry_name": "Hatrick Bamford"
            },
            {
                "id": 18284618,
                "event_total": 44,
                "player_name": "Fares palestine",
                "rank": 30,
                "last_rank": 21,
                "rank_sort": 30,
                "total": 2129,
                "entry": 2986575,
                "entry_name": "الزعامه"
            },
            {
                "id": 189378,
                "event_total": 48,
                "player_name": "Mcley Similien",
                "rank": 31,
                "last_rank": 29,
                "rank_sort": 31,
                "total": 2128,
                "entry": 36924,
                "entry_name": "Kaka Voye Fc"
            },
            {
                "id": 936102,
                "event_total": 47,
                "player_name": "Saad Alnemer",
                "rank": 31,
                "last_rank": 26,
                "rank_sort": 32,
                "total": 2128,
                "entry": 178162,
                "entry_name": "Alnemer FC"
            },
            {
                "id": 29673,
                "event_total": 50,
                "player_name": "Jonny Pringle",
                "rank": 33,
                "last_rank": 32,
                "rank_sort": 33,
                "total": 2128,
                "entry": 6359,
                "entry_name": "Pringletelli"
            },
            {
                "id": 954020,
                "event_total": 82,
                "player_name": "Jalal Alsabbagh",
                "rank": 34,
                "last_rank": 115,
                "rank_sort": 34,
                "total": 2127,
                "entry": 180965,
                "entry_name": "الأسطورة الحية"
            },
            {
                "id": 3654938,
                "event_total": 53,
                "player_name": "Bård Tokerud",
                "rank": 35,
                "last_rank": 40,
                "rank_sort": 35,
                "total": 2127,
                "entry": 688216,
                "entry_name": "Calcio Etrusco"
            },
            {
                "id": 1782919,
                "event_total": 53,
                "player_name": "bart arends",
                "rank": 36,
                "last_rank": 41,
                "rank_sort": 36,
                "total": 2126,
                "entry": 335796,
                "entry_name": "Iheanacho with chees"
            },
            {
                "id": 32240174,
                "event_total": 80,
                "player_name": "Dorji Wangchuk",
                "rank": 37,
                "last_rank": 119,
                "rank_sort": 37,
                "total": 2125,
                "entry": 4779692,
                "entry_name": "SERLHOSHARJANG258FC"
            },
            {
                "id": 5017752,
                "event_total": 78,
                "player_name": "billel khoubzi",
                "rank": 38,
                "last_rank": 112,
                "rank_sort": 38,
                "total": 2125,
                "entry": 941743,
                "entry_name": "khbillel"
            },
            {
                "id": 4342262,
                "event_total": 56,
                "player_name": "Shanny Leo",
                "rank": 39,
                "last_rank": 37,
                "rank_sort": 39,
                "total": 2125,
                "entry": 815773,
                "entry_name": "AD10S"
            },
            {
                "id": 461932,
                "event_total": 44,
                "player_name": "Victor Olsson",
                "rank": 40,
                "last_rank": 22,
                "rank_sort": 40,
                "total": 2124,
                "entry": 88795,
                "entry_name": "Wicovich fc"
            },
            {
                "id": 6983,
                "event_total": 51,
                "player_name": "Santosh Krishna",
                "rank": 41,
                "last_rank": 35,
                "rank_sort": 41,
                "total": 2124,
                "entry": 1746,
                "entry_name": "Bhaigan ka FPL!"
            },
            {
                "id": 848886,
                "event_total": 51,
                "player_name": "Thomas Davies",
                "rank": 42,
                "last_rank": 44,
                "rank_sort": 42,
                "total": 2123,
                "entry": 163042,
                "entry_name": "Tom"
            },
            {
                "id": 1274977,
                "event_total": 46,
                "player_name": "Maciek Ujma",
                "rank": 43,
                "last_rank": 36,
                "rank_sort": 43,
                "total": 2123,
                "entry": 240429,
                "entry_name": "Ayew HeungMin's son?"
            },
            {
                "id": 1737584,
                "event_total": 53,
                "player_name": "Ethan Schofield",
                "rank": 44,
                "last_rank": 46,
                "rank_sort": 44,
                "total": 2121,
                "entry": 327074,
                "entry_name": "50 Shades O’Shea"
            },
            {
                "id": 282160,
                "event_total": 57,
                "player_name": "Zak Leathers",
                "rank": 45,
                "last_rank": 50,
                "rank_sort": 45,
                "total": 2121,
                "entry": 54823,
                "entry_name": "Rubber Digne Rapids"
            },
            {
                "id": 14209003,
                "event_total": 63,
                "player_name": "Mehedi Hasan Bhuiya",
                "rank": 46,
                "last_rank": 58,
                "rank_sort": 46,
                "total": 2121,
                "entry": 2461763,
                "entry_name": "Hasanchester City"
            },
            {
                "id": 36317357,
                "event_total": 84,
                "player_name": "Bruce Wayne",
                "rank": 47,
                "last_rank": 167,
                "rank_sort": 47,
                "total": 2120,
                "entry": 5289197,
                "entry_name": "Ctrl Alt De Laet"
            },
            {
                "id": 32890856,
                "event_total": 40,
                "player_name": "Tom Hanssens",
                "rank": 48,
                "last_rank": 31,
                "rank_sort": 48,
                "total": 2120,
                "entry": 4858525,
                "entry_name": "Hanssens FC"
            },
            {
                "id": 26955972,
                "event_total": 76,
                "player_name": "Dino Melunovic",
                "rank": 49,
                "last_rank": 131,
                "rank_sort": 49,
                "total": 2119,
                "entry": 4084083,
                "entry_name": "Andyrino Copyrino"
            },
            {
                "id": 189340,
                "event_total": 77,
                "player_name": "Mijanur Rahman",
                "rank": 50,
                "last_rank": 135,
                "rank_sort": 50,
                "total": 2119,
                "entry": 36917,
                "entry_name": "MEETALICA FC"
            }
        ]
    }
}